<?xml version="1.0" encoding="UTF-8" standalone="no"?>
<svg
   xmlns:dc="http://purl.org/dc/elements/1.1/"
   xmlns:cc="http://creativecommons.org/ns#"
   xmlns:rdf="http://www.w3.org/1999/02/22-rdf-syntax-ns#"
   xmlns:svg="http://www.w3.org/2000/svg"
   xmlns="http://www.w3.org/2000/svg"
   xmlns:sodipodi="http://sodipodi.sourceforge.net/DTD/sodipodi-0.dtd"
   xmlns:inkscape="http://www.inkscape.org/namespaces/inkscape"
   inkscape:version="1.0beta2 (2b71d25, 2019-12-03)"
   sodipodi:docname="favicon.svg"
   id="svg847"
   version="1.1"
   viewBox="0 0 500 500"
   height="500"
   width="500"
   style="background-color: #EFEFEF">
  <metadata
     id="metadata853">
    <rdf:RDF>
      <cc:Work
         rdf:about="">
        <dc:format>image/svg+xml</dc:format>
        <dc:type
           rdf:resource="http://purl.org/dc/dcmitype/StillImage" />
      </cc:Work>
    </rdf:RDF>
  </metadata>
  <defs
     id="defs851" />
  <sodipodi:namedview
     inkscape:current-layer="svg847"
     inkscape:window-maximized="0"
     inkscape:window-y="23"
     inkscape:window-x="0"
     inkscape:cy="291.1526"
     inkscape:cx="260.93086"
     inkscape:zoom="0.547"
     showgrid="false"
     id="namedview849"
     inkscape:window-height="603"
     inkscape:window-width="1192"
     inkscape:pageshadow="2"
     inkscape:pageopacity="0"
     guidetolerance="10"
     gridtolerance="10"
     objecttolerance="10"
     borderopacity="1"
     inkscape:document-rotation="0"
     bordercolor="#666666"
     pagecolor="#ffffff" />
  <g
     transform="matrix(0.83448023,0,0,0.83448023,51.592852,42.856776)"
     id="g841">
    <path
       inkscape:connector-curvature="0"
       id="path833"
       d="M 84.001291,237.49959 V 76.588052 H 24.533985 V 30.795045 H 198.1658 V 76.588052 H 138.69849 V 237.49959 Z"
       fill="#333333" />
    <path
       inkscape:connector-curvature="0"
       id="path835"
       d="m 302.02987,241.31567 q -18.76241,0 -34.34475,-6.67814 -15.58235,-6.99616 -26.71259,-20.35245 -11.13025,-13.6743 -17.49039,-33.70874 -6.04213,-20.35245 -6.04213,-47.38304 0,-26.07658 6.04213,-45.793011 6.36014,-20.03444 17.49039,-33.390733 11.13024,-13.356294 26.71259,-20.034441 15.58234,-6.996153 34.34475,-6.996153 18.76241,0 34.34475,6.996153 15.58235,6.678147 26.71259,20.034441 11.13025,13.356293 17.17238,33.390733 6.36014,19.716431 6.36014,45.793011 0,27.03059 -6.36014,47.38304 -6.04213,20.03444 -17.17238,33.70874 -11.13024,13.35629 -26.71259,20.35245 -15.58234,6.67814 -34.34475,6.67814 z m 0,-47.06503 q 13.35629,0 20.98846,-14.94633 7.63217,-14.94633 7.63217,-46.11101 0,-29.89266 -7.63217,-44.520983 -7.63217,-14.628321 -20.98846,-14.628321 -13.35629,0 -20.98846,14.628321 -7.63217,14.628323 -7.63217,44.520983 0,31.16468 7.63217,46.11101 7.63217,14.94633 20.98846,14.94633 z"
       fill="#333333" />
    <path
       inkscape:connector-curvature="0"
       id="path837"
       d="M 36.300243,476.00483 V 269.30029 H 95.76755 q 22.26049,0 40.70489,5.72412 18.44441,5.72413 31.8007,18.1264 13.3563,12.40227 20.67046,31.8007 7.63217,19.39843 7.63217,46.74703 0,27.3486 -7.31417,47.06503 -7.31416,19.71643 -20.67045,32.43671 -13.03829,12.72028 -30.84668,18.76242 -17.80839,6.04213 -38.79685,6.04213 z m 54.697202,-43.88497 h 1.908042 q 9.858213,0 18.444403,-2.54405 8.9042,-2.86206 15.26434,-9.54021 6.36014,-6.67815 10.17622,-18.44441 3.81609,-11.76625 3.81609,-29.89265 0,-18.1264 -3.81609,-29.57465 -3.81608,-11.44825 -10.17622,-17.80839 -6.36014,-6.36014 -15.26434,-8.58619 -8.58619,-2.54406 -18.444403,-2.54406 h -1.908042 z"
       fill="#333333" />
    <path
       inkscape:connector-curvature="0"
       id="path839"
       d="m 302.02987,479.82091 q -18.76241,0 -34.34475,-6.67814 -15.58235,-6.99616 -26.71259,-20.35245 -11.13025,-13.6743 -17.49039,-33.70874 -6.04213,-20.35245 -6.04213,-47.38304 0,-26.07658 6.04213,-45.79301 6.36014,-20.03444 17.49039,-33.39073 11.13024,-13.3563 26.71259,-20.03444 15.58234,-6.99616 34.34475,-6.99616 18.76241,0 34.34475,6.99616 15.58235,6.67814 26.71259,20.03444 11.13025,13.35629 17.17238,33.39073 6.36014,19.71643 6.36014,45.79301 0,27.03059 -6.36014,47.38304 -6.04213,20.03444 -17.17238,33.70874 -11.13024,13.35629 -26.71259,20.35245 -15.58234,6.67814 -34.34475,6.67814 z m 0,-47.06503 q 13.35629,0 20.98846,-14.94633 7.63217,-14.94633 7.63217,-46.11101 0,-29.89266 -7.63217,-44.52098 -7.63217,-14.62832 -20.98846,-14.62832 -13.35629,0 -20.98846,14.62832 -7.63217,14.62832 -7.63217,44.52098 0,31.16468 7.63217,46.11101 7.63217,14.94633 20.98846,14.94633 z"
       fill="#333333" />
  </g>
  <g
     id="g845"
     transform="matrix(0.83448023,0,0,0.83448023,51.592852,149.67024)">
    <circle
       id="circle843"
       fill="#ff3b3f"
       r="38.610645"
       cy="306.48364"
       cx="426.13019" />
  </g>
</svg>
